\relax 
\@writefile{toc}{\contentsline {section}{\numberline {1}Simulation Parameters}{1}\protected@file@percent }
\@writefile{toc}{\contentsline {section}{\numberline {2}Generated Graphs}{1}\protected@file@percent }
